{
    "KPlugin": {
        "Authors": [
            {
                "Email": "kossebau@kde.org",
                "Name": "Friedrich W. H. Kossebau",
                "Name[ast]": "Friedrich W. H. Kossebau",
                "Name[az]": "Friedrich W. H. Kossebau",
                "Name[ca@valencia]": "Friedrich W. H. Kossebau",
                "Name[ca]": "Friedrich W. H. Kossebau",
                "Name[cs]": "Friedrich W. H. Kossebau",
                "Name[da]": "Friedrich W. H. Kossebau",
                "Name[de]": "Friedrich W. H. Kossebau",
                "Name[el]": "Friedrich W. H. Kossebau",
                "Name[en_GB]": "Friedrich W. H. Kossebau",
                "Name[es]": "Friedrich W. H. Kossebau",
                "Name[et]": "Friedrich W. H. Kossebau",
                "Name[eu]": "Friedrich W. H. Kossebau",
                "Name[fi]": "Friedrich W. H. Kossebau",
                "Name[fr]": "Friedrich W. H. Kossebau",
                "Name[gl]": "Friedrich W. H. Kossebau",
                "Name[hu]": "Friedrich W. H. Kossebau",
                "Name[ia]": "Friedrich W. H. Kossebau",
                "Name[id]": "Friedrich W. H. Kossebau",
                "Name[it]": "Friedrich W. H. Kossebau",
                "Name[ko]": "Friedrich W. H. Kossebau",
                "Name[my]": "ဖရက်ရစ် ဒဗျူ.အိပ်ချ်.ကိုဆက်ဘောက်",
                "Name[nl]": "Friedrich W. H. Kossebau",
                "Name[nn]": "Friedrich W.H. Kossebau",
                "Name[pl]": "Friedrich W. H. Kossebau",
                "Name[pt]": "Friedrich W. H. Kossebau",
                "Name[pt_BR]": "Friedrich W. H. Kossebau",
                "Name[ro]": "Friedrich W. H. Kossebau",
                "Name[ru]": "Friedrich W. H. Kossebau",
                "Name[sk]": "Friedrich W. H. Kossebau",
                "Name[sl]": "Friedrich W. H. Kossebau",
                "Name[sr@ijekavian]": "Фридрих В.Х. Косебау",
                "Name[sr@ijekavianlatin]": "Fridrih V.H. Kosebau",
                "Name[sr@latin]": "Fridrih V.H. Kosebau",
                "Name[sr]": "Фридрих В.Х. Косебау",
                "Name[sv]": "Friedrich W. H. Kossebau",
                "Name[tr]": "Friedrich W. H. Kossebau",
                "Name[uk]": "Friedrich W. H. Kossebau",
                "Name[vi]": "Friedrich W. H. Kossebau",
                "Name[x-test]": "xxFriedrich W. H. Kossebauxx",
                "Name[zh_CN]": "Friedrich W. H. Kossebau",
                "Name[zh_TW]": "Friedrich W. H. Kossebau"
            }
        ],
        "Description": "Preview the document in the target format",
        "Description[ast]": "Previsualiza los documentos nel formatu de destín",
        "Description[az]": "Sənədə hədəf formatında öncədən baxış",
        "Description[ca@valencia]": "Vista prèvia del document en el format de destinació",
        "Description[ca]": "Vista prèvia del document en el format de destinació",
        "Description[cs]": "Náhled dokumentu v cílovém formátu",
        "Description[da]": "Forhåndsvis dokumentet i målformatet",
        "Description[de]": "Vorschau des Dokuments im Zielformat",
        "Description[el]": "Προεπισκόπηση του εγγράφου στον τύπο αποθήκευσης προορισμού",
        "Description[en_GB]": "Preview the document in the target format",
        "Description[es]": "Mostrar vista previa del documento en el formato de destino",
        "Description[et]": "Dokumendi eelvaatlus sihtvormingus",
        "Description[eu]": "Aurreikusi dokumentua helburu formatuan",
        "Description[fi]": "Esikatsele tiedostoa kohdemuodossa",
        "Description[fr]": "Aperçu du document dans le format de destination",
        "Description[gl]": "Previsualizar o documento no formato de destino.",
        "Description[hu]": "Dokumentumok előnézete a célformátumban",
        "Description[ia]": "Vide preliminarmente le documento in le formato objectivo",
        "Description[id]": "Pratinjaukan dokumen di dalam format sasaran",
        "Description[it]": "Anteprima del documento nel formato di destinazione",
        "Description[ko]": "문서를 대상 형식으로 미리 보기",
        "Description[ml]": "ടാർഗെറ്റ് ഫോർമാറ്റിൽ പ്രമാണം തിരനോട്ടം ചെയ്യുക",
        "Description[nl]": "Het document bekijken in het doelformaat",
        "Description[nn]": "Førehandsvis dokumentet i målformatet",
        "Description[pl]": "Podejrzyj dokument w formacie docelowym",
        "Description[pt]": "Mostra uma antevisão do documento no formato-alvo",
        "Description[pt_BR]": "Visualize o documento no formato de destino",
        "Description[ro]": "Previzualizează documentul în formatul țintă",
        "Description[ru]": "Предварительный просмотр документа в целевом формате",
        "Description[sk]": "Náhľad dokumentu v cieľovom formáte",
        "Description[sl]": "Predogled dokumenta v ciljni obliki",
        "Description[sr@ijekavian]": "Прегледајте документ у циљном формату",
        "Description[sr@ijekavianlatin]": "Pregledajte dokument u ciljnom formatu",
        "Description[sr@latin]": "Pregledajte dokument u ciljnom formatu",
        "Description[sr]": "Прегледајте документ у циљном формату",
        "Description[sv]": "Förhandsgranska dokumentet i målformatet",
        "Description[tr]": "Belgeyi hedef biçimde önizle",
        "Description[uk]": "Попередній перегляд документа у форматі призначення",
        "Description[vi]": "Xem thử tài liệu ở dạng thức đích",
        "Description[x-test]": "xxPreview the document in the target formatxx",
        "Description[zh_CN]": "以目标格式预览文档",
        "Description[zh_TW]": "以目標格式顯示文件預覽",
        "Icon": "document-preview",
        "Id": "ktexteditorpreview",
        "Name": "Document Preview",
        "Name[ast]": "Previsualización de documentos",
        "Name[az]": "Sənədə öncədən baxış",
        "Name[ca@valencia]": "Vista prèvia de document",
        "Name[ca]": "Vista prèvia de document",
        "Name[cs]": "Náhled na dokument",
        "Name[da]": "Forhåndsvisning af dokument",
        "Name[de]": "Dokumentvorschau",
        "Name[el]": "Προεπισκόπηση εγγράφου",
        "Name[en_GB]": "Document Preview",
        "Name[es]": "Vista previa del documento",
        "Name[et]": "Dokumendi eelvaatlus",
        "Name[eu]": "Dokumentua aurreikusi",
        "Name[fi]": "Tiedoston esikatselu",
        "Name[fr]": "Aperçu de document",
        "Name[gl]": "Vista previa do documento",
        "Name[hu]": "Dokumentum-előnézet",
        "Name[ia]": "Vista preliminari de documento",
        "Name[id]": "Pratinjau Dokumen",
        "Name[it]": "Anteprima del documento",
        "Name[ko]": "문서 미리 보기",
        "Name[ml]": "പ്രമാണ പ്രിവ്യൂ",
        "Name[my]": "မှတ်တမ်းပုံနှိပ်မူ အကြိုမြင်ကွင်း",
        "Name[nl]": "Voorbeeld van document",
        "Name[nn]": "Førehandsvising av dokument",
        "Name[pl]": "Podgląd dokumentu",
        "Name[pt]": "Antevisão do Documento",
        "Name[pt_BR]": "Visualização do documento",
        "Name[ro]": "Previzualizare document",
        "Name[ru]": "Предварительный просмотр документа",
        "Name[sk]": "Náhľad dokumentu",
        "Name[sl]": "Predogled dokumenta",
        "Name[sr@ijekavian]": "Преглед документа",
        "Name[sr@ijekavianlatin]": "Pregled dokumenta",
        "Name[sr@latin]": "Pregled dokumenta",
        "Name[sr]": "Преглед документа",
        "Name[sv]": "Dokumentförhandsgranskning",
        "Name[tr]": "Belge Önizleme",
        "Name[uk]": "Перегляд документа",
        "Name[vi]": "Xem thử tài liệu",
        "Name[x-test]": "xxDocument Previewxx",
        "Name[zh_CN]": "文档预览",
        "Name[zh_TW]": "文件預覽",
        "ServiceTypes": [
            "KTextEditor/Plugin",
            "KDevelop/Plugin"
        ]
    }
}
